%!PS-Adobe-2.0
%%Title: plot.eps
%%Creator: gnuplot 4.4 patchlevel 3
%%CreationDate: Thu Mar 28 19:34:44 2013
%%DocumentFonts: (atend)
%%BoundingBox: 50 50 554 770
%%Orientation: Landscape
%%Pages: (atend)
%%EndComments
%%BeginProlog
/gnudict 256 dict def
gnudict begin
%
% The following true/false flags may be edited by hand if desired.
% The unit line width and grayscale image gamma correction may also be changed.
%
/Color false def
/Blacktext false def
/Solid false def
/Dashlength 1 def
/Landscape true def
/Level1 false def
/Rounded false def
/ClipToBoundingBox false def
/TransparentPatterns false def
/gnulinewidth 5.000 def
/userlinewidth gnulinewidth def
/Gamma 1.0 def
%
/vshift -46 def
/dl1 {
  10.0 Dashlength mul mul
  Rounded { currentlinewidth 0.75 mul sub dup 0 le { pop 0.01 } if } if
} def
/dl2 {
  10.0 Dashlength mul mul
  Rounded { currentlinewidth 0.75 mul add } if
} def
/hpt_ 31.5 def
/vpt_ 31.5 def
/hpt hpt_ def
/vpt vpt_ def
Level1 {} {
/SDict 10 dict def
systemdict /pdfmark known not {
  userdict /pdfmark systemdict /cleartomark get put
} if
SDict begin [
  /Title (plot.eps)
  /Subject (gnuplot plot)
  /Creator (gnuplot 4.4 patchlevel 3)
  /Author (eliezers)
%  /Producer (gnuplot)
%  /Keywords ()
  /CreationDate (Thu Mar 28 19:34:44 2013)
  /DOCINFO pdfmark
end
} ifelse
/doclip {
  ClipToBoundingBox {
    newpath 50 50 moveto 554 50 lineto 554 770 lineto 50 770 lineto closepath
    clip
  } if
} def
%
% Gnuplot Prolog Version 4.4 (August 2010)
%
%/SuppressPDFMark true def
%
/M {moveto} bind def
/L {lineto} bind def
/R {rmoveto} bind def
/V {rlineto} bind def
/N {newpath moveto} bind def
/Z {closepath} bind def
/C {setrgbcolor} bind def
/f {rlineto fill} bind def
/g {setgray} bind def
/Gshow {show} def   % May be redefined later in the file to support UTF-8
/vpt2 vpt 2 mul def
/hpt2 hpt 2 mul def
/Lshow {currentpoint stroke M 0 vshift R 
	Blacktext {gsave 0 setgray show grestore} {show} ifelse} def
/Rshow {currentpoint stroke M dup stringwidth pop neg vshift R
	Blacktext {gsave 0 setgray show grestore} {show} ifelse} def
/Cshow {currentpoint stroke M dup stringwidth pop -2 div vshift R 
	Blacktext {gsave 0 setgray show grestore} {show} ifelse} def
/UP {dup vpt_ mul /vpt exch def hpt_ mul /hpt exch def
  /hpt2 hpt 2 mul def /vpt2 vpt 2 mul def} def
/DL {Color {setrgbcolor Solid {pop []} if 0 setdash}
 {pop pop pop 0 setgray Solid {pop []} if 0 setdash} ifelse} def
/BL {stroke userlinewidth 2 mul setlinewidth
	Rounded {1 setlinejoin 1 setlinecap} if} def
/AL {stroke userlinewidth 2 div setlinewidth
	Rounded {1 setlinejoin 1 setlinecap} if} def
/UL {dup gnulinewidth mul /userlinewidth exch def
	dup 1 lt {pop 1} if 10 mul /udl exch def} def
/PL {stroke userlinewidth setlinewidth
	Rounded {1 setlinejoin 1 setlinecap} if} def
3.8 setmiterlimit
% Default Line colors
/LCw {1 1 1} def
/LCb {0 0 0} def
/LCa {0 0 0} def
/LC0 {1 0 0} def
/LC1 {0 1 0} def
/LC2 {0 0 1} def
/LC3 {1 0 1} def
/LC4 {0 1 1} def
/LC5 {1 1 0} def
/LC6 {0 0 0} def
/LC7 {1 0.3 0} def
/LC8 {0.5 0.5 0.5} def
% Default Line Types
/LTw {PL [] 1 setgray} def
/LTb {BL [] LCb DL} def
/LTa {AL [1 udl mul 2 udl mul] 0 setdash LCa setrgbcolor} def
/LT0 {PL [] LC0 DL} def
/LT1 {PL [4 dl1 2 dl2] LC1 DL} def
/LT2 {PL [2 dl1 3 dl2] LC2 DL} def
/LT3 {PL [1 dl1 1.5 dl2] LC3 DL} def
/LT4 {PL [6 dl1 2 dl2 1 dl1 2 dl2] LC4 DL} def
/LT5 {PL [3 dl1 3 dl2 1 dl1 3 dl2] LC5 DL} def
/LT6 {PL [2 dl1 2 dl2 2 dl1 6 dl2] LC6 DL} def
/LT7 {PL [1 dl1 2 dl2 6 dl1 2 dl2 1 dl1 2 dl2] LC7 DL} def
/LT8 {PL [2 dl1 2 dl2 2 dl1 2 dl2 2 dl1 2 dl2 2 dl1 4 dl2] LC8 DL} def
/Pnt {stroke [] 0 setdash gsave 1 setlinecap M 0 0 V stroke grestore} def
/Dia {stroke [] 0 setdash 2 copy vpt add M
  hpt neg vpt neg V hpt vpt neg V
  hpt vpt V hpt neg vpt V closepath stroke
  Pnt} def
/Pls {stroke [] 0 setdash vpt sub M 0 vpt2 V
  currentpoint stroke M
  hpt neg vpt neg R hpt2 0 V stroke
 } def
/Box {stroke [] 0 setdash 2 copy exch hpt sub exch vpt add M
  0 vpt2 neg V hpt2 0 V 0 vpt2 V
  hpt2 neg 0 V closepath stroke
  Pnt} def
/Crs {stroke [] 0 setdash exch hpt sub exch vpt add M
  hpt2 vpt2 neg V currentpoint stroke M
  hpt2 neg 0 R hpt2 vpt2 V stroke} def
/TriU {stroke [] 0 setdash 2 copy vpt 1.12 mul add M
  hpt neg vpt -1.62 mul V
  hpt 2 mul 0 V
  hpt neg vpt 1.62 mul V closepath stroke
  Pnt} def
/Star {2 copy Pls Crs} def
/BoxF {stroke [] 0 setdash exch hpt sub exch vpt add M
  0 vpt2 neg V hpt2 0 V 0 vpt2 V
  hpt2 neg 0 V closepath fill} def
/TriUF {stroke [] 0 setdash vpt 1.12 mul add M
  hpt neg vpt -1.62 mul V
  hpt 2 mul 0 V
  hpt neg vpt 1.62 mul V closepath fill} def
/TriD {stroke [] 0 setdash 2 copy vpt 1.12 mul sub M
  hpt neg vpt 1.62 mul V
  hpt 2 mul 0 V
  hpt neg vpt -1.62 mul V closepath stroke
  Pnt} def
/TriDF {stroke [] 0 setdash vpt 1.12 mul sub M
  hpt neg vpt 1.62 mul V
  hpt 2 mul 0 V
  hpt neg vpt -1.62 mul V closepath fill} def
/DiaF {stroke [] 0 setdash vpt add M
  hpt neg vpt neg V hpt vpt neg V
  hpt vpt V hpt neg vpt V closepath fill} def
/Pent {stroke [] 0 setdash 2 copy gsave
  translate 0 hpt M 4 {72 rotate 0 hpt L} repeat
  closepath stroke grestore Pnt} def
/PentF {stroke [] 0 setdash gsave
  translate 0 hpt M 4 {72 rotate 0 hpt L} repeat
  closepath fill grestore} def
/Circle {stroke [] 0 setdash 2 copy
  hpt 0 360 arc stroke Pnt} def
/CircleF {stroke [] 0 setdash hpt 0 360 arc fill} def
/C0 {BL [] 0 setdash 2 copy moveto vpt 90 450 arc} bind def
/C1 {BL [] 0 setdash 2 copy moveto
	2 copy vpt 0 90 arc closepath fill
	vpt 0 360 arc closepath} bind def
/C2 {BL [] 0 setdash 2 copy moveto
	2 copy vpt 90 180 arc closepath fill
	vpt 0 360 arc closepath} bind def
/C3 {BL [] 0 setdash 2 copy moveto
	2 copy vpt 0 180 arc closepath fill
	vpt 0 360 arc closepath} bind def
/C4 {BL [] 0 setdash 2 copy moveto
	2 copy vpt 180 270 arc closepath fill
	vpt 0 360 arc closepath} bind def
/C5 {BL [] 0 setdash 2 copy moveto
	2 copy vpt 0 90 arc
	2 copy moveto
	2 copy vpt 180 270 arc closepath fill
	vpt 0 360 arc} bind def
/C6 {BL [] 0 setdash 2 copy moveto
	2 copy vpt 90 270 arc closepath fill
	vpt 0 360 arc closepath} bind def
/C7 {BL [] 0 setdash 2 copy moveto
	2 copy vpt 0 270 arc closepath fill
	vpt 0 360 arc closepath} bind def
/C8 {BL [] 0 setdash 2 copy moveto
	2 copy vpt 270 360 arc closepath fill
	vpt 0 360 arc closepath} bind def
/C9 {BL [] 0 setdash 2 copy moveto
	2 copy vpt 270 450 arc closepath fill
	vpt 0 360 arc closepath} bind def
/C10 {BL [] 0 setdash 2 copy 2 copy moveto vpt 270 360 arc closepath fill
	2 copy moveto
	2 copy vpt 90 180 arc closepath fill
	vpt 0 360 arc closepath} bind def
/C11 {BL [] 0 setdash 2 copy moveto
	2 copy vpt 0 180 arc closepath fill
	2 copy moveto
	2 copy vpt 270 360 arc closepath fill
	vpt 0 360 arc closepath} bind def
/C12 {BL [] 0 setdash 2 copy moveto
	2 copy vpt 180 360 arc closepath fill
	vpt 0 360 arc closepath} bind def
/C13 {BL [] 0 setdash 2 copy moveto
	2 copy vpt 0 90 arc closepath fill
	2 copy moveto
	2 copy vpt 180 360 arc closepath fill
	vpt 0 360 arc closepath} bind def
/C14 {BL [] 0 setdash 2 copy moveto
	2 copy vpt 90 360 arc closepath fill
	vpt 0 360 arc} bind def
/C15 {BL [] 0 setdash 2 copy vpt 0 360 arc closepath fill
	vpt 0 360 arc closepath} bind def
/Rec {newpath 4 2 roll moveto 1 index 0 rlineto 0 exch rlineto
	neg 0 rlineto closepath} bind def
/Square {dup Rec} bind def
/Bsquare {vpt sub exch vpt sub exch vpt2 Square} bind def
/S0 {BL [] 0 setdash 2 copy moveto 0 vpt rlineto BL Bsquare} bind def
/S1 {BL [] 0 setdash 2 copy vpt Square fill Bsquare} bind def
/S2 {BL [] 0 setdash 2 copy exch vpt sub exch vpt Square fill Bsquare} bind def
/S3 {BL [] 0 setdash 2 copy exch vpt sub exch vpt2 vpt Rec fill Bsquare} bind def
/S4 {BL [] 0 setdash 2 copy exch vpt sub exch vpt sub vpt Square fill Bsquare} bind def
/S5 {BL [] 0 setdash 2 copy 2 copy vpt Square fill
	exch vpt sub exch vpt sub vpt Square fill Bsquare} bind def
/S6 {BL [] 0 setdash 2 copy exch vpt sub exch vpt sub vpt vpt2 Rec fill Bsquare} bind def
/S7 {BL [] 0 setdash 2 copy exch vpt sub exch vpt sub vpt vpt2 Rec fill
	2 copy vpt Square fill Bsquare} bind def
/S8 {BL [] 0 setdash 2 copy vpt sub vpt Square fill Bsquare} bind def
/S9 {BL [] 0 setdash 2 copy vpt sub vpt vpt2 Rec fill Bsquare} bind def
/S10 {BL [] 0 setdash 2 copy vpt sub vpt Square fill 2 copy exch vpt sub exch vpt Square fill
	Bsquare} bind def
/S11 {BL [] 0 setdash 2 copy vpt sub vpt Square fill 2 copy exch vpt sub exch vpt2 vpt Rec fill
	Bsquare} bind def
/S12 {BL [] 0 setdash 2 copy exch vpt sub exch vpt sub vpt2 vpt Rec fill Bsquare} bind def
/S13 {BL [] 0 setdash 2 copy exch vpt sub exch vpt sub vpt2 vpt Rec fill
	2 copy vpt Square fill Bsquare} bind def
/S14 {BL [] 0 setdash 2 copy exch vpt sub exch vpt sub vpt2 vpt Rec fill
	2 copy exch vpt sub exch vpt Square fill Bsquare} bind def
/S15 {BL [] 0 setdash 2 copy Bsquare fill Bsquare} bind def
/D0 {gsave translate 45 rotate 0 0 S0 stroke grestore} bind def
/D1 {gsave translate 45 rotate 0 0 S1 stroke grestore} bind def
/D2 {gsave translate 45 rotate 0 0 S2 stroke grestore} bind def
/D3 {gsave translate 45 rotate 0 0 S3 stroke grestore} bind def
/D4 {gsave translate 45 rotate 0 0 S4 stroke grestore} bind def
/D5 {gsave translate 45 rotate 0 0 S5 stroke grestore} bind def
/D6 {gsave translate 45 rotate 0 0 S6 stroke grestore} bind def
/D7 {gsave translate 45 rotate 0 0 S7 stroke grestore} bind def
/D8 {gsave translate 45 rotate 0 0 S8 stroke grestore} bind def
/D9 {gsave translate 45 rotate 0 0 S9 stroke grestore} bind def
/D10 {gsave translate 45 rotate 0 0 S10 stroke grestore} bind def
/D11 {gsave translate 45 rotate 0 0 S11 stroke grestore} bind def
/D12 {gsave translate 45 rotate 0 0 S12 stroke grestore} bind def
/D13 {gsave translate 45 rotate 0 0 S13 stroke grestore} bind def
/D14 {gsave translate 45 rotate 0 0 S14 stroke grestore} bind def
/D15 {gsave translate 45 rotate 0 0 S15 stroke grestore} bind def
/DiaE {stroke [] 0 setdash vpt add M
  hpt neg vpt neg V hpt vpt neg V
  hpt vpt V hpt neg vpt V closepath stroke} def
/BoxE {stroke [] 0 setdash exch hpt sub exch vpt add M
  0 vpt2 neg V hpt2 0 V 0 vpt2 V
  hpt2 neg 0 V closepath stroke} def
/TriUE {stroke [] 0 setdash vpt 1.12 mul add M
  hpt neg vpt -1.62 mul V
  hpt 2 mul 0 V
  hpt neg vpt 1.62 mul V closepath stroke} def
/TriDE {stroke [] 0 setdash vpt 1.12 mul sub M
  hpt neg vpt 1.62 mul V
  hpt 2 mul 0 V
  hpt neg vpt -1.62 mul V closepath stroke} def
/PentE {stroke [] 0 setdash gsave
  translate 0 hpt M 4 {72 rotate 0 hpt L} repeat
  closepath stroke grestore} def
/CircE {stroke [] 0 setdash 
  hpt 0 360 arc stroke} def
/Opaque {gsave closepath 1 setgray fill grestore 0 setgray closepath} def
/DiaW {stroke [] 0 setdash vpt add M
  hpt neg vpt neg V hpt vpt neg V
  hpt vpt V hpt neg vpt V Opaque stroke} def
/BoxW {stroke [] 0 setdash exch hpt sub exch vpt add M
  0 vpt2 neg V hpt2 0 V 0 vpt2 V
  hpt2 neg 0 V Opaque stroke} def
/TriUW {stroke [] 0 setdash vpt 1.12 mul add M
  hpt neg vpt -1.62 mul V
  hpt 2 mul 0 V
  hpt neg vpt 1.62 mul V Opaque stroke} def
/TriDW {stroke [] 0 setdash vpt 1.12 mul sub M
  hpt neg vpt 1.62 mul V
  hpt 2 mul 0 V
  hpt neg vpt -1.62 mul V Opaque stroke} def
/PentW {stroke [] 0 setdash gsave
  translate 0 hpt M 4 {72 rotate 0 hpt L} repeat
  Opaque stroke grestore} def
/CircW {stroke [] 0 setdash 
  hpt 0 360 arc Opaque stroke} def
/BoxFill {gsave Rec 1 setgray fill grestore} def
/Density {
  /Fillden exch def
  currentrgbcolor
  /ColB exch def /ColG exch def /ColR exch def
  /ColR ColR Fillden mul Fillden sub 1 add def
  /ColG ColG Fillden mul Fillden sub 1 add def
  /ColB ColB Fillden mul Fillden sub 1 add def
  ColR ColG ColB setrgbcolor} def
/BoxColFill {gsave Rec PolyFill} def
/PolyFill {gsave Density fill grestore grestore} def
/h {rlineto rlineto rlineto gsave closepath fill grestore} bind def
%
% PostScript Level 1 Pattern Fill routine for rectangles
% Usage: x y w h s a XX PatternFill
%	x,y = lower left corner of box to be filled
%	w,h = width and height of box
%	  a = angle in degrees between lines and x-axis
%	 XX = 0/1 for no/yes cross-hatch
%
/PatternFill {gsave /PFa [ 9 2 roll ] def
  PFa 0 get PFa 2 get 2 div add PFa 1 get PFa 3 get 2 div add translate
  PFa 2 get -2 div PFa 3 get -2 div PFa 2 get PFa 3 get Rec
  gsave 1 setgray fill grestore clip
  currentlinewidth 0.5 mul setlinewidth
  /PFs PFa 2 get dup mul PFa 3 get dup mul add sqrt def
  0 0 M PFa 5 get rotate PFs -2 div dup translate
  0 1 PFs PFa 4 get div 1 add floor cvi
	{PFa 4 get mul 0 M 0 PFs V} for
  0 PFa 6 get ne {
	0 1 PFs PFa 4 get div 1 add floor cvi
	{PFa 4 get mul 0 2 1 roll M PFs 0 V} for
 } if
  stroke grestore} def
%
/languagelevel where
 {pop languagelevel} {1} ifelse
 2 lt
	{/InterpretLevel1 true def}
	{/InterpretLevel1 Level1 def}
 ifelse
%
% PostScript level 2 pattern fill definitions
%
/Level2PatternFill {
/Tile8x8 {/PaintType 2 /PatternType 1 /TilingType 1 /BBox [0 0 8 8] /XStep 8 /YStep 8}
	bind def
/KeepColor {currentrgbcolor [/Pattern /DeviceRGB] setcolorspace} bind def
<< Tile8x8
 /PaintProc {0.5 setlinewidth pop 0 0 M 8 8 L 0 8 M 8 0 L stroke} 
>> matrix makepattern
/Pat1 exch def
<< Tile8x8
 /PaintProc {0.5 setlinewidth pop 0 0 M 8 8 L 0 8 M 8 0 L stroke
	0 4 M 4 8 L 8 4 L 4 0 L 0 4 L stroke}
>> matrix makepattern
/Pat2 exch def
<< Tile8x8
 /PaintProc {0.5 setlinewidth pop 0 0 M 0 8 L
	8 8 L 8 0 L 0 0 L fill}
>> matrix makepattern
/Pat3 exch def
<< Tile8x8
 /PaintProc {0.5 setlinewidth pop -4 8 M 8 -4 L
	0 12 M 12 0 L stroke}
>> matrix makepattern
/Pat4 exch def
<< Tile8x8
 /PaintProc {0.5 setlinewidth pop -4 0 M 8 12 L
	0 -4 M 12 8 L stroke}
>> matrix makepattern
/Pat5 exch def
<< Tile8x8
 /PaintProc {0.5 setlinewidth pop -2 8 M 4 -4 L
	0 12 M 8 -4 L 4 12 M 10 0 L stroke}
>> matrix makepattern
/Pat6 exch def
<< Tile8x8
 /PaintProc {0.5 setlinewidth pop -2 0 M 4 12 L
	0 -4 M 8 12 L 4 -4 M 10 8 L stroke}
>> matrix makepattern
/Pat7 exch def
<< Tile8x8
 /PaintProc {0.5 setlinewidth pop 8 -2 M -4 4 L
	12 0 M -4 8 L 12 4 M 0 10 L stroke}
>> matrix makepattern
/Pat8 exch def
<< Tile8x8
 /PaintProc {0.5 setlinewidth pop 0 -2 M 12 4 L
	-4 0 M 12 8 L -4 4 M 8 10 L stroke}
>> matrix makepattern
/Pat9 exch def
/Pattern1 {PatternBgnd KeepColor Pat1 setpattern} bind def
/Pattern2 {PatternBgnd KeepColor Pat2 setpattern} bind def
/Pattern3 {PatternBgnd KeepColor Pat3 setpattern} bind def
/Pattern4 {PatternBgnd KeepColor Landscape {Pat5} {Pat4} ifelse setpattern} bind def
/Pattern5 {PatternBgnd KeepColor Landscape {Pat4} {Pat5} ifelse setpattern} bind def
/Pattern6 {PatternBgnd KeepColor Landscape {Pat9} {Pat6} ifelse setpattern} bind def
/Pattern7 {PatternBgnd KeepColor Landscape {Pat8} {Pat7} ifelse setpattern} bind def
} def
%
%
%End of PostScript Level 2 code
%
/PatternBgnd {
  TransparentPatterns {} {gsave 1 setgray fill grestore} ifelse
} def
%
% Substitute for Level 2 pattern fill codes with
% grayscale if Level 2 support is not selected.
%
/Level1PatternFill {
/Pattern1 {0.250 Density} bind def
/Pattern2 {0.500 Density} bind def
/Pattern3 {0.750 Density} bind def
/Pattern4 {0.125 Density} bind def
/Pattern5 {0.375 Density} bind def
/Pattern6 {0.625 Density} bind def
/Pattern7 {0.875 Density} bind def
} def
%
% Now test for support of Level 2 code
%
Level1 {Level1PatternFill} {Level2PatternFill} ifelse
%
/Symbol-Oblique /Symbol findfont [1 0 .167 1 0 0] makefont
dup length dict begin {1 index /FID eq {pop pop} {def} ifelse} forall
currentdict end definefont pop
/MFshow {
   { dup 5 get 3 ge
     { 5 get 3 eq {gsave} {grestore} ifelse }
     {dup dup 0 get findfont exch 1 get scalefont setfont
     [ currentpoint ] exch dup 2 get 0 exch R dup 5 get 2 ne {dup dup 6
     get exch 4 get {Gshow} {stringwidth pop 0 R} ifelse }if dup 5 get 0 eq
     {dup 3 get {2 get neg 0 exch R pop} {pop aload pop M} ifelse} {dup 5
     get 1 eq {dup 2 get exch dup 3 get exch 6 get stringwidth pop -2 div
     dup 0 R} {dup 6 get stringwidth pop -2 div 0 R 6 get
     show 2 index {aload pop M neg 3 -1 roll neg R pop pop} {pop pop pop
     pop aload pop M} ifelse }ifelse }ifelse }
     ifelse }
   forall} def
/Gswidth {dup type /stringtype eq {stringwidth} {pop (n) stringwidth} ifelse} def
/MFwidth {0 exch { dup 5 get 3 ge { 5 get 3 eq { 0 } { pop } ifelse }
 {dup 3 get{dup dup 0 get findfont exch 1 get scalefont setfont
     6 get Gswidth pop add} {pop} ifelse} ifelse} forall} def
/MLshow { currentpoint stroke M
  0 exch R
  Blacktext {gsave 0 setgray MFshow grestore} {MFshow} ifelse } bind def
/MRshow { currentpoint stroke M
  exch dup MFwidth neg 3 -1 roll R
  Blacktext {gsave 0 setgray MFshow grestore} {MFshow} ifelse } bind def
/MCshow { currentpoint stroke M
  exch dup MFwidth -2 div 3 -1 roll R
  Blacktext {gsave 0 setgray MFshow grestore} {MFshow} ifelse } bind def
/XYsave    { [( ) 1 2 true false 3 ()] } bind def
/XYrestore { [( ) 1 2 true false 4 ()] } bind def
end
%%EndProlog
%%Page: 1 1
gnudict begin
gsave
doclip
50 50 translate
0.100 0.100 scale
90 rotate
0 -5040 translate
0 setgray
newpath
(Helvetica) findfont 140 scalefont setfont
1.000 UL
LTb
1.000 UL
LTa
938 448 M
6009 0 V
stroke
LTb
938 448 M
63 0 V
5946 0 R
-63 0 V
stroke
854 448 M
[ [(Helvetica) 140.0 0.0 true true 0 ( 0.0001)]
] -46.7 MRshow
1.000 UL
LTb
938 781 M
31 0 V
5978 0 R
-31 0 V
938 976 M
31 0 V
5978 0 R
-31 0 V
938 1114 M
31 0 V
5978 0 R
-31 0 V
938 1221 M
31 0 V
5978 0 R
-31 0 V
938 1308 M
31 0 V
5978 0 R
-31 0 V
938 1382 M
31 0 V
5978 0 R
-31 0 V
938 1447 M
31 0 V
5978 0 R
-31 0 V
938 1503 M
31 0 V
5978 0 R
-31 0 V
stroke
LTa
938 1554 M
6009 0 V
stroke
LTb
938 1554 M
63 0 V
5946 0 R
-63 0 V
stroke
854 1554 M
[ [(Helvetica) 140.0 0.0 true true 0 ( 0.001)]
] -46.7 MRshow
1.000 UL
LTb
938 1887 M
31 0 V
5978 0 R
-31 0 V
938 2081 M
31 0 V
5978 0 R
-31 0 V
938 2219 M
31 0 V
5978 0 R
-31 0 V
938 2327 M
31 0 V
5978 0 R
-31 0 V
938 2414 M
31 0 V
5978 0 R
-31 0 V
938 2488 M
31 0 V
5978 0 R
-31 0 V
938 2552 M
31 0 V
5978 0 R
-31 0 V
938 2609 M
31 0 V
5978 0 R
-31 0 V
stroke
LTa
938 2660 M
6009 0 V
stroke
LTb
938 2660 M
63 0 V
5946 0 R
-63 0 V
stroke
854 2660 M
[ [(Helvetica) 140.0 0.0 true true 0 ( 0.01)]
] -46.7 MRshow
1.000 UL
LTb
938 2992 M
31 0 V
5978 0 R
-31 0 V
938 3187 M
31 0 V
5978 0 R
-31 0 V
938 3325 M
31 0 V
5978 0 R
-31 0 V
938 3432 M
31 0 V
5978 0 R
-31 0 V
938 3520 M
31 0 V
5978 0 R
-31 0 V
938 3594 M
31 0 V
5978 0 R
-31 0 V
938 3658 M
31 0 V
5978 0 R
-31 0 V
938 3715 M
31 0 V
5978 0 R
-31 0 V
stroke
LTa
938 3765 M
6009 0 V
stroke
LTb
938 3765 M
63 0 V
5946 0 R
-63 0 V
stroke
854 3765 M
[ [(Helvetica) 140.0 0.0 true true 0 ( 0.1)]
] -46.7 MRshow
1.000 UL
LTb
938 4098 M
31 0 V
5978 0 R
-31 0 V
938 4293 M
31 0 V
5978 0 R
-31 0 V
938 4431 M
31 0 V
5978 0 R
-31 0 V
938 4538 M
31 0 V
5978 0 R
-31 0 V
938 4626 M
31 0 V
5978 0 R
-31 0 V
938 4700 M
31 0 V
5978 0 R
-31 0 V
938 4764 M
31 0 V
5978 0 R
-31 0 V
938 4820 M
31 0 V
5978 0 R
-31 0 V
stroke
LTa
938 4871 M
6009 0 V
stroke
LTb
938 4871 M
63 0 V
5946 0 R
-63 0 V
stroke
854 4871 M
[ [(Helvetica) 140.0 0.0 true true 0 ( 1)]
] -46.7 MRshow
1.000 UL
LTb
1.000 UL
LTa
938 448 M
0 4423 V
stroke
LTb
938 448 M
0 63 V
0 4360 R
0 -63 V
stroke
938 308 M
[ [(Helvetica) 140.0 0.0 true true 0 ( 10)]
] -46.7 MCshow
1.000 UL
LTb
1541 448 M
0 31 V
0 4392 R
0 -31 V
1894 448 M
0 31 V
0 4392 R
0 -31 V
2144 448 M
0 31 V
0 4392 R
0 -31 V
2338 448 M
0 31 V
0 4392 R
0 -31 V
2497 448 M
0 31 V
0 4392 R
0 -31 V
2631 448 M
0 31 V
0 4392 R
0 -31 V
2747 448 M
0 31 V
0 4392 R
0 -31 V
2849 448 M
0 31 V
0 4392 R
0 -31 V
stroke
LTa
2941 448 M
0 3940 V
0 420 R
0 63 V
stroke
LTb
2941 448 M
0 63 V
0 4360 R
0 -63 V
stroke
2941 308 M
[ [(Helvetica) 140.0 0.0 true true 0 ( 100)]
] -46.7 MCshow
1.000 UL
LTb
3544 448 M
0 31 V
0 4392 R
0 -31 V
3897 448 M
0 31 V
0 4392 R
0 -31 V
4147 448 M
0 31 V
0 4392 R
0 -31 V
4341 448 M
0 31 V
0 4392 R
0 -31 V
4500 448 M
0 31 V
0 4392 R
0 -31 V
4634 448 M
0 31 V
0 4392 R
0 -31 V
4750 448 M
0 31 V
0 4392 R
0 -31 V
4852 448 M
0 31 V
0 4392 R
0 -31 V
stroke
LTa
4944 448 M
0 3940 V
0 420 R
0 63 V
stroke
LTb
4944 448 M
0 63 V
0 4360 R
0 -63 V
stroke
4944 308 M
[ [(Helvetica) 140.0 0.0 true true 0 ( 1000)]
] -46.7 MCshow
1.000 UL
LTb
5547 448 M
0 31 V
0 4392 R
0 -31 V
5900 448 M
0 31 V
0 4392 R
0 -31 V
6150 448 M
0 31 V
0 4392 R
0 -31 V
6344 448 M
0 31 V
0 4392 R
0 -31 V
6503 448 M
0 31 V
0 4392 R
0 -31 V
6637 448 M
0 31 V
0 4392 R
0 -31 V
6753 448 M
0 31 V
0 4392 R
0 -31 V
6855 448 M
0 31 V
0 4392 R
0 -31 V
stroke
LTa
6947 448 M
0 4423 V
stroke
LTb
6947 448 M
0 63 V
0 4360 R
0 -63 V
stroke
6947 308 M
[ [(Helvetica) 140.0 0.0 true true 0 ( 10000)]
] -46.7 MCshow
1.000 UL
LTb
1.000 UL
LTb
938 4871 N
938 448 L
6009 0 V
0 4423 V
-6009 0 V
Z stroke
LCb setrgbcolor
112 2659 M
currentpoint gsave translate -270 rotate 0 0 moveto
[ [(Helvetica) 140.0 0.0 true true 0 (selectivity)]
] -46.7 MCshow
grestore
LTb
LCb setrgbcolor
3942 98 M
[ [(Helvetica) 140.0 0.0 true true 0 (ncluster)]
] -46.7 MCshow
LTb
1.000 UP
1.000 UL
LTb
% Begin plot #1
1.000 UP
1.000 UL
LT0
LCb setrgbcolor
4718 4738 M
[ [(Helvetica) 140.0 0.0 true true 0 (dados-exp8-kmeans-selectivity.txt)]
] -46.7 MRshow
LT0
4802 4738 M
399 0 V
938 3800 M
353 -212 V
250 -132 V
353 -206 V
250 -137 V
194 -97 V
159 -87 V
134 -62 V
116 -58 V
102 -66 V
92 -36 V
603 -313 V
797 -355 V
603 -250 V
603 -252 V
353 -150 V
250 -89 V
194 -59 V
938 3800 Pls
1291 3588 Pls
1541 3456 Pls
1894 3250 Pls
2144 3113 Pls
2338 3016 Pls
2497 2929 Pls
2631 2867 Pls
2747 2809 Pls
2849 2743 Pls
2941 2707 Pls
3544 2394 Pls
4341 2039 Pls
4944 1789 Pls
5547 1537 Pls
5900 1387 Pls
6150 1298 Pls
6344 1239 Pls
5001 4738 Pls
% End plot #1
% Begin plot #2
1.000 UP
1.000 UL
LT1
LCb setrgbcolor
4718 4598 M
[ [(Helvetica) 140.0 0.0 true true 0 (dados-exp8-fastkmedoid-selectivity.txt)]
] -46.7 MRshow
LT1
4802 4598 M
399 0 V
938 3916 M
353 -268 V
250 -60 V
353 -142 V
250 -217 V
194 -73 V
159 -38 V
134 -79 V
116 -104 V
102 24 V
92 -110 V
603 -281 V
797 -448 V
603 -374 V
603 -315 V
353 -209 V
250 -125 V
6344 995 L
938 3916 Crs
1291 3648 Crs
1541 3588 Crs
1894 3446 Crs
2144 3229 Crs
2338 3156 Crs
2497 3118 Crs
2631 3039 Crs
2747 2935 Crs
2849 2959 Crs
2941 2849 Crs
3544 2568 Crs
4341 2120 Crs
4944 1746 Crs
5547 1431 Crs
5900 1222 Crs
6150 1097 Crs
6344 995 Crs
5001 4598 Crs
% End plot #2
% Begin plot #3
1.000 UP
1.000 UL
LT2
LCb setrgbcolor
4718 4458 M
[ [(Helvetica) 140.0 0.0 true true 0 (dados-exp9-varncluster-dflsh-selectivity.txt)]
] -46.7 MRshow
LT2
4802 4458 M
399 0 V
938 3877 M
353 -196 V
250 -115 V
353 -166 V
250 -143 V
194 -58 V
159 -142 V
134 -41 V
116 -97 V
102 -5 V
92 -3 V
603 -396 V
797 -440 V
603 -284 V
603 -349 V
353 -225 V
250 -113 V
194 -99 V
938 3877 Star
1291 3681 Star
1541 3566 Star
1894 3400 Star
2144 3257 Star
2338 3199 Star
2497 3057 Star
2631 3016 Star
2747 2919 Star
2849 2914 Star
2941 2911 Star
3544 2515 Star
4341 2075 Star
4944 1791 Star
5547 1442 Star
5900 1217 Star
6150 1104 Star
6344 1005 Star
5001 4458 Star
% End plot #3
1.000 UL
LTb
938 4871 N
938 448 L
6009 0 V
0 4423 V
-6009 0 V
Z stroke
1.000 UP
1.000 UL
LTb
stroke
grestore
end
showpage
%%Trailer
%%DocumentFonts: Helvetica
%%Pages: 1
